…
r_ph <- pubmedAbstractR(search = search, start = start, end = end, n = n)
```

```
Please wait...Your query is "public health"[MeSH Terms] AND deep learning[tw] AND 2000[PDAT] : 2018[PDAT]. This returns 336 abstracts. By default 1000 abstracts are downloaded. You downloaded 336 abstracts. To retrieve more set 'n =' argument to the desired value
```

```r
r_ph
```

```
# A tibble: 336 x 5
   title            abstract            journal           DOI   year 
   <chr>            <chr>               <chr>             <chr> <chr>
 1 Deep learning a… Synovial sarcoma i… Tumour biology :… 3026… 2018 
 2 Automated chest… OBJECTIVE: In this… Biomedical engin… 2979… 2018 
 3 Deep Learning t… Early detection of… Sensors (Basel, … 2978… 2018 
 4 A survey of stu… Retrieval practice… Advances in phys… 2976… 2018 
 5 Convolutional n… With the introduct… PloS one          2973… 2018 
 6 A deep belief n… Nonlinear system m… Neural networks … 2972… 2018 
 7 The Use of Smar… The use of smartph… Journal of medic… 2970… 2018 
 8 RIDDLE: Race an… Anonymized electro… PLoS computation… 2969… 2018 
 9 Machine Learnin… The ultrasound ima… BioMed research … 2968… 2018 
10 Human Activity … In recent years, h… Journal of medic… 2966… 2018 
# ... with 326 more rows
```
…
